Exercise-12
…
# Print the entire resulting dataset
print(d1)

# A tibble: 1,440 × 14
   order        family      Genus species `mass(g)` `gestation(mo)` `newborn(g)`
   <chr>        <chr>       <chr> <chr>       <dbl>           <dbl>        <dbl>
 1 Artiodactyla Antilocapr… Anti… americ…    45375             8.13        3246.
 2 Artiodactyla Bovidae     Addax nasoma…   182375             9.39        5480 
 3 Artiodactyla Bovidae     Aepy… melamp…    41480             6.35        5093 
 4 Artiodactyla Bovidae     Alce… busela…   150000             7.9        10167.
 5 Artiodactyla Bovidae     Ammo… clarkei    28500             6.8           NA 
 6 Artiodactyla Bovidae     Ammo… lervia     55500             5.08        3810 
 7 Artiodactyla Bovidae     Anti… marsup…    30000             5.72        3910 
 8 Artiodactyla Bovidae     Anti… cervic…    37500             5.5         3846 
 9 Artiodactyla Bovidae     Bison bison     497667.            8.93       20000 
10 Artiodactyla Bovidae     Bison bonasus   500000             9.14       23000.
# ℹ 1,430 more rows
# ℹ 7 more variables: `weaning(mo)` <dbl>, `wean mass(g)` <dbl>,
#   `AFR(mo)` <dbl>, `max. life(mo)` <dbl>, `litter size` <dbl>,
#   `litters/year` <dbl>, refs <dbl>
…
Step 3: Log transform all of the other numeric variables.

library(dplyr)

d1 <- d1 %>%
  mutate(across(where(is.numeric), ~ log(. + 1)))
print(d1)

# A tibble: 1,440 × 12
   order        family      Genus species `mass(g)` `gestation(mo)` `newborn(g)`
   <chr>        <chr>       <chr> <chr>       <dbl>           <dbl>        <dbl>
 1 Artiodactyla Antilocapr… Anti… americ…      10.7            2.21         8.09
 2 Artiodactyla Bovidae     Addax nasoma…      12.1            2.34         8.61
 3 Artiodactyla Bovidae     Aepy… melamp…      10.6            1.99         8.54
 4 Artiodactyla Bovidae     Alce… busela…      11.9            2.19         9.23
 5 Artiodactyla Bovidae     Ammo… clarkei      10.3            2.05        NA   
 6 Artiodactyla Bovidae     Ammo… lervia       10.9            1.81         8.25
 7 Artiodactyla Bovidae     Anti… marsup…      10.3            1.91         8.27
 8 Artiodactyla Bovidae     Anti… cervic…      10.5            1.87         8.26
 9 Artiodactyla Bovidae     Bison bison        13.1            2.30         9.90
10 Artiodactyla Bovidae     Bison bonasus      13.1            2.32        10.0 
# ℹ 1,430 more rows
# ℹ 5 more variables: `weaning(mo)` <dbl>, `wean mass(g)` <dbl>,
#   `AFR(mo)` <dbl>, `max. life(mo)` <dbl>, `litters/year` <dbl>
…
# View the updated dataframe
print(d1)

# A tibble: 1,440 × 18
   order        family      Genus species `mass(g)` `gestation(mo)` `newborn(g)`
   <chr>        <chr>       <chr> <chr>       <dbl>           <dbl>        <dbl>
 1 Artiodactyla Antilocapr… Anti… americ…      10.7            2.21         8.09
 2 Artiodactyla Bovidae     Addax nasoma…      12.1            2.34         8.61
 3 Artiodactyla Bovidae     Aepy… melamp…      10.6            1.99         8.54
 4 Artiodactyla Bovidae     Alce… busela…      11.9            2.19         9.23
 5 Artiodactyla Bovidae     Ammo… clarkei      10.3            2.05        NA   
 6 Artiodactyla Bovidae     Ammo… lervia       10.9            1.81         8.25
 7 Artiodactyla Bovidae     Anti… marsup…      10.3            1.91         8.27
 8 Artiodactyla Bovidae     Anti… cervic…      10.5            1.87         8.26
 9 Artiodactyla Bovidae     Bison bison        13.1            2.30         9.90
10 Artiodactyla Bovidae     Bison bonasus      13.1            2.32        10.0 
# ℹ 1,430 more rows
# ℹ 11 more variables: `weaning(mo)` <dbl>, `wean mass(g)` <dbl>,
#   `AFR(mo)` <dbl>, `max. life(mo)` <dbl>, `litters/year` <dbl>,
#   relGest <dbl>, relWean <dbl>, relAFR <dbl>, relLife <dbl>,
#   relNewbornMass <dbl>, relWeaningMass <dbl>
…
HINT: Before running models, winnow your dataset to drop rows that are missing the respective response variable or any of the predictors, e.g., by using drop_na().

library(tidyr)
library(dplyr)
library(MuMIn)
library(tidyverse)

# Winnow the dataset to drop rows with missing values
# Dropping rows with missing values for selected variables
d1_NEW <- d1 |> drop_na(`max. life(mo)`, `AFR(mo)`, `gestation(mo)`, `newborn(g)`, `weaning(mo)`, `wean mass(g)`, `litters/year`, `mass(g)`)

d1_NEW

# A tibble: 206 × 18
   order        family      Genus species `mass(g)` `gestation(mo)` `newborn(g)`
   <chr>        <chr>       <chr> <chr>       <dbl>           <dbl>        <dbl>
 1 Artiodactyla Antilocapr… Anti… americ…     10.7             2.21         8.09
 2 Artiodactyla Bovidae     Aepy… melamp…     10.6             1.99         8.54
 3 Artiodactyla Bovidae     Bison bison       13.1             2.30         9.90
 4 Artiodactyla Bovidae     Gaze… subgut…     10.1             1.85         7.79
 5 Artiodactyla Bovidae     Kobus kob         11.0             2.24         8.50
 6 Artiodactyla Bovidae     Mado… kirkii       8.49            1.91         6.48
 7 Artiodactyla Bovidae     Ovis  canade…     11.1             1.94         8.36
 8 Artiodactyla Bovidae     Saiga tatari…     10.6             1.78         8.12
 9 Artiodactyla Bovidae     Sync… caffer      13.1             2.49        10.7 
10 Artiodactyla Camelidae   Came… dromed…     13.0             2.61        10.5 
# ℹ 196 more rows
# ℹ 11 more variables: `weaning(mo)` <dbl>, `wean mass(g)` <dbl>,
#   `AFR(mo)` <dbl>, `max. life(mo)` <dbl>, `litters/year` <dbl>,
#   relGest <dbl>, relWean <dbl>, relAFR <dbl>, relLife <dbl>,
#   relNewbornMass <dbl>, relWeaningMass <dbl>
…
